Stat M254 Final Project
…
head(cluster2.markers, n = 5)

                        p_val avg_log2FC pct.1 pct.2     p_val_adj
ENSG00000036448 5.845854e-281   5.120988 0.842 0.053 1.036470e-276
ENSG00000198574 7.634866e-220   4.484793 0.647 0.033 1.353662e-215
ENSG00000137441 9.021005e-213   4.026964 0.879 0.100 1.599424e-208
ENSG00000180644 4.665963e-183   3.620712 0.977 0.192 8.272753e-179
ENSG00000203747 1.150558e-175   3.193053 0.930 0.152 2.039939e-171

data1.markers <- FindAllMarkers(data1, only.pos = TRUE)
data1.markers %>%
    group_by(cluster) %>%
    dplyr::filter(avg_log2FC > 1)

# A tibble: 23,698 × 7
# Groups:   cluster [21]
       p_val avg_log2FC pct.1 pct.2 p_val_adj cluster gene           
       <dbl>      <dbl> <dbl> <dbl>     <dbl> <fct>   <chr>          
 1 8.42e-137       3.91 0.443 0.032 1.49e-132 0       ENSG00000183813
 2 1.94e-131       1.96 0.979 0.259 3.45e-127 0       ENSG00000168685
 3 3.33e-126       2.25 0.962 0.339 5.90e-122 0       ENSG00000227507
 4 2.94e-119       2.66 0.599 0.086 5.21e-115 0       ENSG00000172005
 5 5.39e-108       2.48 0.616 0.105 9.56e-104 0       ENSG00000163600
 6 2.57e- 88       2.01 0.612 0.124 4.56e- 84 0       ENSG00000138795
 7 1.88e- 84       1.69 0.74  0.193 3.34e- 80 0       ENSG00000126353
 8 2.78e- 83       1.18 1     0.907 4.92e- 79 0       ENSG00000133872
 9 2.07e- 80       1.98 0.692 0.19  3.67e- 76 0       ENSG00000090554
10 4.60e- 78       2.25 0.581 0.135 8.16e- 74 0       ENSG00000117602
# ℹ 23,688 more rows
…
